%YAML 1.1
%TAG !u! tag:unity3d.com,2011:
--- !u!21 &2100000
Material:
  serializedVersion: 6
  m_ObjectHideFlags: 0
  m_CorrespondingSourceObject: {fileID: 0}
  m_PrefabInstance: {fileID: 0}
  m_PrefabAsset: {fileID: 0}
  m_Name: MI_Trim_A_Black_Stn
  m_Shader: {fileID: 46, guid: 0000000000000000f000000000000000, type: 0}
  m_ShaderKeywords: 
  m_LightmapFlags: 4
  m_EnableInstancingVariants: 0
  m_DoubleSidedGI: 0
  m_CustomRenderQueue: -1
  stringTagMap:
    MotionVector: User
  disabledShaderPasses:
  - TransparentBackface
  - MOTIONVECTORS
  - TransparentDepthPrepass
  - TransparentDepthPostpass
  m_SavedProperties:
    serializedVersion: 3
    m_TexEnvs:
    - Texture2D_2CABC486:
        m_Texture: {fileID: 2800000, guid: 2a91c6ab03e6a624d85221585d00fbd3, type: 3}
        m_Scale: {x: 1, y: 1}
        m_Offset: {x: 0, y: 0}
    - Texture2D_4B775764:
        m_Texture: {fileID: 2800000, guid: b939af5ca8fbb6b4e9b4983a05d42a6e, type: 3}
        m_Scale: {x: 1, y: 1}
        m_Offset: {x: 0, y: 0}
    - Texture2D_4FD85571:
        m_Texture: {fileID: 2800000, guid: 71d30c085c775a24388b15a0027d6cb4, type: 3}
        m_Scale: {x: 1, y: 1}
        m_Offset: {x: 0, y: 0}
    - Texture2D_5408433D:
        m_Texture: {fileID: 2800000, guid: effceaac2bb695c4dae5b994ceb320ec, type: 3}
        m_Scale: {x: 1, y: 1}
        m_Offset: {x: 0, y: 0}
    - Texture2D_5608E5F7:
        m_Texture: {fileID: 0}
        m_Scale: {x: 1, y: 1}
        m_Offset: {x: 0, y: 0}
    - Texture2D_72B1B21D:
        m_Texture: {fileID: 2800000, guid: fcf3596785dbc6943b6312b518fb379c, type: 3}
        m_Scale: {x: 1, y: 1}
        m_Offset: {x: 0, y: 0}
    - Texture2D_B2510E28:
        m_Texture: {fileID: 2800000, guid: 694aa2398140fc24f86b3ae8b72789a7, type: 3}
        m_Scale: {x: 1, y: 1}
        m_Offset: {x: 0, y: 0}
    - Texture2D_BAC13869:
        m_Texture: {fileID: 2800000, guid: ebab2cd42822523499546648db1749cf, type: 3}
        m_Scale: {x: 1, y: 1}
        m_Offset: {x: 0, y: 0}
    - Texture2D_E83D178C:
        m_Texture: {fileID: 2800000, guid: d1f0146888c77f14dace211bd846b664, type: 3}
        m_Scale: {x: 1, y: 1}
        m_Offset: {x: 0, y: 0}
    - Texture2D_EA3AC869:
        m_Texture: {fileID: 2800000, guid: b4f58d32703c094438848ef821248202, type: 3}
        m_Scale: {x: 1, y: 1}
        m_Offset: {x: 0, y: 0}
    - Texture2D_FC84C0E:
        m_Texture: {fileID: 2800000, guid: a85c518efa941e94c853c62752c09cfb, type: 3}
        m_Scale: {x: 1, y: 1}
        m_Offset: {x: 0, y: 0}
    - _BumpMap:
        m_Texture: {fileID: 0}
        m_Scale: {x: 1, y: 1}
        m_Offset: {x: 0, y: 0}
    - _DetailAlbedoMap:
        m_Texture: {fileID: 0}
        m_Scale: {x: 1, y: 1}
        m_Offset: {x: 0, y: 0}
    - _DetailMask:
        m_Texture: {fileID: 0}
        m_Scale: {x: 1, y: 1}
        m_Offset: {x: 0, y: 0}
    - _DetailNormalMap:
        m_Texture: {fileID: 0}
        m_Scale: {x: 1, y: 1}
        m_Offset: {x: 0, y: 0}
    - _EmissionMap:
        m_Texture: {fileID: 0}
        m_Scale: {x: 1, y: 1}
        m_Offset: {x: 0, y: 0}
    - _MainTex:
        m_Texture: {fileID: 0}
        m_Scale: {x: 1, y: 1}
        m_Offset: {x: 0, y: 0}
    - _MetallicGlossMap:
        m_Texture: {fileID: 0}
        m_Scale: {x: 1, y: 1}
        m_Offset: {x: 0, y: 0}
    - _OcclusionMap:
        m_Texture: {fileID: 0}
        m_Scale: {x: 1, y: 1}
        m_Offset: {x: 0, y: 0}
    - _ParallaxMap:
        m_Texture: {fileID: 0}
        m_Scale: {x: 1, y: 1}
        m_Offset: {x: 0, y: 0}
    m_Floats:
    - Boolean_1C73A808: 0
    - Boolean_47C9A4AF: 1
    - Vector1_10801276: 0.5
    - Vector1_207BBBC: 0.5
    - Vector1_216A0F4E: 0.5
    - Vector1_2511F4E7: 0
    - Vector1_2F626328: 0.5
    - Vector1_30F0F650: 0.7
    - Vector1_38125D30: 1
    - Vector1_3B3A9202: 0.3
    - Vector1_3BE1816F: 1
    - Vector1_3DD27BB7: 0.3
    - Vector1_3E9FC9D5: 0.65
    - Vector1_4CF461DF: 0.7
    - Vector1_4EBAD885: 0.5
    - Vector1_5A8B310A: 0.7
    - Vector1_5E2FD3F2: 0.7
    - Vector1_665BBCA3: 0.5
    - Vector1_68760D4E: 0.8
    - Vector1_71029585: 0.7
    - Vector1_769117C1: 0.5
    - Vector1_7799C9FA: 0.5
    - Vector1_7DDEFFAB: 0
    - Vector1_87580CA9: 1
    - Vector1_8A9B715C: 1
    - Vector1_91943237: 0.5
    - Vector1_96E432B7: 0.5
    - Vector1_A12C5B39: 0
    - Vector1_A5B79E78: 11
    - Vector1_AE6943BD: 0.5
    - Vector1_B1001D6E: 0.5
    - Vector1_B27C19F7: 1
    - Vector1_C6EB1B1D: 0.1
    - Vector1_C81D03B2: 0
    - Vector1_C89E88C4: 0.6
    - Vector1_CA05D7DD: 0.5
    - Vector1_CB47AA93: 11
    - Vector1_D382B644: 1
    - Vector1_E4711FFE: 0.7
    - Vector1_E4F7C22D: 0.5
    - Vector1_FB0E29C8: 0.5
    - _AlphaCutoffEnable: 0
    - _AlphaDstBlend: 0
    - _AlphaSrcBlend: 1
    - _BlendMode: 0
    - _BumpScale: 1
    - _CullMode: 2
    - _CullModeForward: 2
    - _Cutoff: 0.5
    - _DetailNormalMapScale: 1
    - _DoubleSidedEnable: 0
    - _DoubleSidedNormalMode: 2
    - _DstBlend: 0
    - _EnableFogOnTransparent: 1
    - _GlossMapScale: 1
    - _Glossiness: 0
    - _GlossyReflections: 1
    - _Metallic: 0
    - _Mode: 0
    - _OcclusionStrength: 1
    - _Parallax: 0.02
    - _ReceivesSSR: 1
    - _RenderQueueType: 1
    - _RequireSplitLighting: 0
    - _SmoothnessTextureChannel: 0
    - _SpecularHighlights: 1
    - _SrcBlend: 1
    - _StencilRef: 0
    - _StencilRefDepth: 8
    - _StencilRefDistortionVec: 4
    - _StencilRefGBuffer: 10
    - _StencilRefMV: 40
    - _StencilWriteMask: 6
    - _StencilWriteMaskDepth: 8
    - _StencilWriteMaskDistortionVec: 4
    - _StencilWriteMaskGBuffer: 14
    - _StencilWriteMaskMV: 40
    - _SurfaceType: 0
    - _TransparentBackfaceEnable: 0
    - _TransparentCullMode: 2
    - _TransparentDepthPostpassEnable: 0
    - _TransparentDepthPrepassEnable: 0
    - _TransparentSortPriority: 0
    - _TransparentZWrite: 0
    - _UVSec: 0
    - _UseShadowThreshold: 0
    - _ZTestDepthEqualForOpaque: 3
    - _ZTestGBuffer: 4
    - _ZTestTransparent: 4
    - _ZWrite: 1
    m_Colors:
    - Color_389058CE: {r: 1, g: 1, b: 1, a: 0}
    - Color_39796ABC: {r: 0.68235296, g: 0.68235296, b: 0.68235296, a: 0}
    - Color_3B8A8A57: {r: 0.35686275, g: 0.35686275, b: 0.35686275, a: 0}
    - Color_4AA0B92B: {r: 0.68235296, g: 0.68235296, b: 0.68235296, a: 0}
    - Color_4FB5617: {r: 1, g: 1, b: 1, a: 0}
    - Color_798B95CD: {r: 0.4784314, g: 0.4784314, b: 0.4784314, a: 0}
    - Color_952F90C5: {r: 1, g: 1, b: 1, a: 0}
    - Color_B8819151: {r: 0.4784314, g: 0.4784314, b: 0.4784314, a: 0}
    - Color_F27407D1: {r: 1, g: 1, b: 1, a: 0}
    - Color_FC368C04: {r: 0.35686275, g: 0.35686275, b: 0.35686275, a: 0}
    - _Color: {r: 0.2158605, g: 0.2158605, b: 0.2158605, a: 1}
    - _DoubleSidedConstants: {r: 1, g: 1, b: -1, a: 0}
    - _EmissionColor: {r: 1, g: 1, b: 1, a: 1}
  m_BuildTextureStacks: []
--- !u!114 &8884661147019699278
MonoBehaviour:
  m_ObjectHideFlags: 11
  m_CorrespondingSourceObject: {fileID: 0}
  m_PrefabInstance: {fileID: 0}
  m_PrefabAsset: {fileID: 0}
  m_GameObject: {fileID: 0}
  m_Enabled: 1
  m_EditorHideFlags: 0
  m_Script: {fileID: 11500000, guid: da692e001514ec24dbc4cca1949ff7e8, type: 3}
  m_Name: 
  m_EditorClassIdentifier: 
  version: 2
